Loading data • torch
…
Cf. vignettes/examples/mnist-cnn.R for a complete example.

What if you want to train on a different dataset? In these cases, you subclass Dataset, an abstract container that needs to know how to iterate over the given data. To that purpose, your subclass needs to implement .getitem(), and say what should be returned when the data loader is asking for the next batch.

In .getitem(), you can implement whatever preprocessing you require. Additionally, you should implement .length(), so users can find out how many items there are in the dataset.

While this may sound complicated, it is not at all. The base logic is straightforward – complexity will, naturally, correlate with how involved your preprocessing is. To provide you with a simple but functional prototype, here we show how to create your own dataset to train on Allison Horst's penguins.

A custom dataset

library(palmerpenguins)
library(magrittr)

penguins
#> # A tibble: 344 x 8
#>    species island bill_length_mm bill_depth_mm flipper_length_… body_mass_g
#>    <fct>   <fct>           <dbl>         <dbl>            <int>       <int>
#>  1 Adelie  Torge…           39.1          18.7              181        3750
#>  2 Adelie  Torge…           39.5          17.4              186        3800
#>  3 Adelie  Torge…           40.3          18                195        3250
#>  4 Adelie  Torge…           NA            NA                 NA          NA
#>  5 Adelie  Torge…           36.7          19.3              193        3450
#>  6 Adelie  Torge…           39.3          20.6              190        3650
#>  7 Adelie  Torge…           38.9          17.8              181        3625
#>  8 Adelie  Torge…           39.2          19.6              195        4675
#>  9 Adelie  Torge…           34.1          18.1              193        3475
#> 10 Adelie  Torge…           42            20.2              190        4250
#> # … with 334 more rows, and 2 more variables: sex <fct>, year <int>
…
